{
    "name": "BA_Studio_2D_Casters",
    "references": [
        "BA_Studio_General",
        "BA_Studio_Utilities"
    ],
    "optionalUnityReferences": [],
    "includePlatforms": [],
    "excludePlatforms": [],
    "allowUnsafeCode": false,
    "overrideReferences": false,
    "precompiledReferences": [],
    "autoReferenced": true,
    "defineConstraints": [],
    "versionDefines": []
}